[Configuration]
Model=models/stat_turrets/st_turretmissile.mdl
FiringDirection=Angle(0,0,0)

[FiringPositions]
1=Vector(26,-25.5,44.5)
2=Vector(26,-25.5,38)
3=Vector(26,-25.5,31.5)
4=Vector(26,-17.5,44.5)
5=Vector(26,-17.5,38)
6=Vector(26,-17.5,31.5)
7=Vector(26,-9.5,44.5)
8=Vector(26,-9.5,38)
9=Vector(26,-9.5,31.5)
10=Vector(26,25.5,44.5)
11=Vector(26,25.5,38)
12=Vector(26,25.5,31.5)
13=Vector(26,17.5,44.5)
14=Vector(26,17.5,38)
15=Vector(26,17.5,31.5)
16=Vector(26,9.5,44.5)
17=Vector(26,9.5,38)
18=Vector(26,9.5,31.5)